[
    { "pk": 1, "model": "mobrelease.platform", "fields": { "name": "iPhone" } },
    { "pk": 2, "model": "mobrelease.platform", "fields": { "name": "iPad" } },
    { "pk": 3, "model": "mobrelease.platform", "fields": { "name": "Android" } },
    { "pk": 4, "model": "mobrelease.platform", "fields": { "name": "Blackberry" } },
    { "pk": 5, "model": "mobrelease.platform", "fields": { "name": "WP7" } },
    { "pk": 6, "model": "mobrelease.platform", "fields": { "name": "iOS" } }

]
